{
  "replace": false,
  "values": [
    "tardis:alabaster_stairs",
    "tardis:tungsten_plate_stairs",
    "tardis:tungsten_pipes_stairs",
    "tardis:tungsten_pattern_stairs",
    "tardis:tungsten_stairs",
    "tardis:metal_grate_stairs",
    "tardis:yellow_crystal_stairs"
  ]
}