{
    "variants": {
        "facing=north": {
        	"model": "tardis:block/holo_ladders"
        },
        "facing=east":  {
        	"model": "tardis:block/holo_ladders", "y": 90
        },
        "facing=south": {
        	"model": "tardis:block/holo_ladders", "y": 180
        },
        "facing=west":  {
        	"model": "tardis:block/holo_ladders", "y": 270
        }
    }
}