{
	"credit": "Made with Blockbench",
	"textures": {
		"0": "tardis:item/demat_circuit",
		"particle": "tardis:item/demat_circuit"
	},
	"elements": [
		{
			"from": [9.3, 0.1, 7.6],
			"to": [10.1, 0.9, 8.4],
			"faces": {
				"north": {"uv": [3, 7, 3, 7], "texture": "#0"},
				"east": {"uv": [3, 7, 3, 7], "texture": "#0"},
				"south": {"uv": [3, 7, 3, 7], "texture": "#0"},
				"west": {"uv": [3, 7, 3, 7], "texture": "#0"},
				"up": {"uv": [3, 7, 3, 7], "texture": "#0"},
				"down": {"uv": [3, 7, 3, 7], "texture": "#0"}
			}
		},
		{
			"from": [7.65, 1, 7.65],
			"to": [8.35, 2, 8.35],
			"faces": {
				"north": {"uv": [8, 6.5, 8, 6], "texture": "#0"},
				"east": {"uv": [8, 6.5, 8, 6], "texture": "#0"},
				"south": {"uv": [8, 6.5, 8, 6], "texture": "#0"},
				"west": {"uv": [8, 6.5, 8, 6], "texture": "#0"},
				"up": {"uv": [8, 6.5, 8, 6], "texture": "#0"},
				"down": {"uv": [8, 6.5, 8, 6], "texture": "#0"}
			}
		},
		{
			"from": [7.5, 0, 7.5],
			"to": [8.5, 1, 8.5],
			"faces": {
				"north": {"uv": [7, 12, 7.25, 12.25], "texture": "#0"},
				"east": {"uv": [7, 12, 7.25, 12.25], "texture": "#0"},
				"south": {"uv": [7, 12, 7.25, 12.25], "texture": "#0"},
				"west": {"uv": [7, 12, 7.25, 12.25], "texture": "#0"},
				"up": {"uv": [7, 12, 7.25, 12.25], "texture": "#0"},
				"down": {"uv": [7, 12, 7.25, 12.25], "texture": "#0"}
			}
		},
		{
			"from": [8.5, 0.15, 7.65],
			"to": [9.5, 0.85, 8.35],
			"faces": {
				"north": {"uv": [8, 6.5, 8, 6], "texture": "#0"},
				"east": {"uv": [8, 6.5, 8, 6], "texture": "#0"},
				"south": {"uv": [8, 6.5, 8, 6], "texture": "#0"},
				"west": {"uv": [8, 6.5, 8, 6], "texture": "#0"},
				"up": {"uv": [8, 6.5, 8, 6], "texture": "#0"},
				"down": {"uv": [8, 6.5, 8, 6], "texture": "#0"}
			}
		},
		{
			"from": [7.65, 0.15, 7.5],
			"to": [8.35, 0.85, 9.5],
			"rotation": {"angle": -22.5, "axis": "y", "origin": [8, 0, 8]},
			"faces": {
				"north": {"uv": [8, 6.5, 8, 6], "texture": "#0"},
				"east": {"uv": [8, 6.5, 8, 6], "texture": "#0"},
				"south": {"uv": [8, 6.5, 8, 6], "texture": "#0"},
				"west": {"uv": [8, 6.5, 8, 6], "texture": "#0"},
				"up": {"uv": [8, 6.5, 8, 6], "texture": "#0"},
				"down": {"uv": [8, 6.5, 8, 6], "texture": "#0"}
			}
		},
		{
			"from": [9.675, -0.25, 7.25],
			"to": [9.975, 1.25, 8.75],
			"faces": {
				"north": {"uv": [1.25, 1.75, 1.25, 2], "texture": "#0"},
				"east": {"uv": [1, 1.75, 1.25, 2], "texture": "#0"},
				"south": {"uv": [1.5, 1.75, 1.5, 2], "texture": "#0"},
				"west": {"uv": [1.25, 1.75, 1.5, 2], "texture": "#0"},
				"up": {"uv": [1.25, 1.75, 1.25, 1.5], "texture": "#0"},
				"down": {"uv": [1.25, 1.5, 1.25, 1.75], "texture": "#0"}
			}
		},
		{
			"from": [7.25, -0.25, 6.025],
			"to": [8.75, 1.25, 6.325],
			"rotation": {"angle": 22.5, "axis": "y", "origin": [8, 0, 8]},
			"faces": {
				"north": {"uv": [1, 2.5, 1.25, 2.75], "texture": "#0"},
				"east": {"uv": [1, 2.5, 1, 2.75], "texture": "#0"},
				"south": {"uv": [1.25, 2.5, 1.5, 2.75], "texture": "#0"},
				"west": {"uv": [1.25, 2.5, 1.25, 2.75], "texture": "#0"},
				"up": {"uv": [1.25, 2.5, 1, 2.5], "texture": "#0"},
				"down": {"uv": [1.5, 2.5, 1.25, 2.5], "texture": "#0"}
			}
		},
		{
			"from": [7.6, 0.1, 5.9],
			"to": [8.4, 0.9, 6.7],
			"rotation": {"angle": 22.5, "axis": "y", "origin": [8, 0, 8]},
			"faces": {
				"north": {"uv": [2, 8, 2, 8], "texture": "#0"},
				"east": {"uv": [2, 8, 2, 8], "texture": "#0"},
				"south": {"uv": [2, 8, 2, 8], "texture": "#0"},
				"west": {"uv": [2, 8, 2, 8], "texture": "#0"},
				"up": {"uv": [2, 8, 2, 8], "texture": "#0"},
				"down": {"uv": [2, 8, 2, 8], "texture": "#0"}
			}
		},
		{
			"from": [7.6, 0.1, 9.3],
			"to": [8.4, 0.9, 10.1],
			"rotation": {"angle": -22.5, "axis": "y", "origin": [8, 0, 8]},
			"faces": {
				"north": {"uv": [3, 7, 3, 7], "texture": "#0"},
				"east": {"uv": [3, 7, 3, 7], "texture": "#0"},
				"south": {"uv": [3, 7, 3, 7], "texture": "#0"},
				"west": {"uv": [3, 7, 3, 7], "texture": "#0"},
				"up": {"uv": [3, 7, 3, 7], "texture": "#0"},
				"down": {"uv": [3, 7, 3, 7], "texture": "#0"}
			}
		},
		{
			"from": [7.25, -0.25, 9.675],
			"to": [8.75, 1.25, 9.975],
			"rotation": {"angle": -22.5, "axis": "y", "origin": [8, 0, 8]},
			"faces": {
				"north": {"uv": [2, 2.5, 2.25, 2.75], "texture": "#0"},
				"east": {"uv": [2, 2.5, 2, 2.75], "texture": "#0"},
				"south": {"uv": [2.25, 2.5, 2.5, 2.75], "texture": "#0"},
				"west": {"uv": [2.25, 2.5, 2.25, 2.75], "texture": "#0"},
				"up": {"uv": [2.25, 2.5, 2, 2.5], "texture": "#0"},
				"down": {"uv": [2.5, 2.5, 2.25, 2.5], "texture": "#0"}
			}
		},
		{
			"from": [7.6, 1.8, 7.6],
			"to": [8.4, 2.6, 8.4],
			"faces": {
				"north": {"uv": [1, 7, 1, 7], "texture": "#0"},
				"east": {"uv": [1, 7, 1, 7], "texture": "#0"},
				"south": {"uv": [1, 7, 1, 7], "texture": "#0"},
				"west": {"uv": [1, 7, 1, 7], "texture": "#0"},
				"up": {"uv": [1, 7, 1, 7], "texture": "#0"},
				"down": {"uv": [1, 7, 1, 7], "texture": "#0"}
			}
		},
		{
			"from": [7.25, 2.175, 7.25],
			"to": [8.75, 2.475, 8.75],
			"faces": {
				"north": {"uv": [0.25, 1.75, 0.5, 1.75], "texture": "#0"},
				"east": {"uv": [0, 1.75, 0.25, 1.75], "texture": "#0"},
				"south": {"uv": [0.75, 1.75, 1, 1.75], "texture": "#0"},
				"west": {"uv": [0.5, 1.75, 0.75, 1.75], "texture": "#0"},
				"up": {"uv": [0.5, 1.75, 0.25, 1.5], "texture": "#0"},
				"down": {"uv": [0.75, 1.5, 0.5, 1.75], "texture": "#0"}
			}
		},
		{
			"from": [6.15, 0.35, 7.6],
			"to": [6.35, 0.65, 8.9],
			"rotation": {"angle": 22.5, "axis": "y", "origin": [8, 0, 8]},
			"faces": {
				"north": {"uv": [8, 2, 8.25, 2], "texture": "#0"},
				"east": {"uv": [8, 2, 8.25, 2], "texture": "#0"},
				"south": {"uv": [8, 2, 8.25, 2], "texture": "#0"},
				"west": {"uv": [8, 2, 8.25, 2], "texture": "#0"},
				"up": {"uv": [8, 2, 8.25, 2], "texture": "#0"},
				"down": {"uv": [8, 2, 8.25, 2], "texture": "#0"}
			}
		},
		{
			"from": [6.125, 0.35, 7.6],
			"to": [6.325, 0.65, 8.35],
			"faces": {
				"north": {"uv": [7, 3, 7, 3], "texture": "#0"},
				"east": {"uv": [7, 3, 7, 3], "texture": "#0"},
				"south": {"uv": [7, 3, 7, 3], "texture": "#0"},
				"west": {"uv": [7, 3, 7, 3], "texture": "#0"},
				"up": {"uv": [7, 3, 7, 3], "texture": "#0"},
				"down": {"uv": [7, 3, 7, 3], "texture": "#0"}
			}
		},
		{
			"from": [7.6, 0.35, 6.25],
			"to": [8.9, 0.65, 6.45],
			"faces": {
				"north": {"uv": [8, 2, 8.25, 2], "texture": "#0"},
				"east": {"uv": [8, 2, 8.25, 2], "texture": "#0"},
				"south": {"uv": [8, 2, 8.25, 2], "texture": "#0"},
				"west": {"uv": [8, 2, 8.25, 2], "texture": "#0"},
				"up": {"uv": [8, 2, 8.25, 2], "texture": "#0"},
				"down": {"uv": [8, 2, 8.25, 2], "texture": "#0"}
			}
		},
		{
			"from": [9.675, 0.35, 7.4],
			"to": [9.875, 0.65, 8.9],
			"rotation": {"angle": 45, "axis": "y", "origin": [8, 0, 8]},
			"faces": {
				"north": {"uv": [8, 2, 8.25, 2], "texture": "#0"},
				"east": {"uv": [8, 2, 8.25, 2], "texture": "#0"},
				"south": {"uv": [8, 2, 8.25, 2], "texture": "#0"},
				"west": {"uv": [8, 2, 8.25, 2], "texture": "#0"},
				"up": {"uv": [8, 2, 8.25, 2], "texture": "#0"},
				"down": {"uv": [8, 2, 8.25, 2], "texture": "#0"}
			}
		},
		{
			"from": [6.125, 0.35, 7.125],
			"to": [6.325, 0.65, 8.35],
			"rotation": {"angle": -22.5, "axis": "y", "origin": [8, 0, 8]},
			"faces": {
				"north": {"uv": [8, 2, 8.25, 2], "texture": "#0"},
				"east": {"uv": [8, 2, 8.25, 2], "texture": "#0"},
				"south": {"uv": [8, 2, 8.25, 2], "texture": "#0"},
				"west": {"uv": [8, 2, 8.25, 2], "texture": "#0"},
				"up": {"uv": [8, 2, 8.25, 2], "texture": "#0"},
				"down": {"uv": [8, 2, 8.25, 2], "texture": "#0"}
			}
		},
		{
			"from": [9.675, 0.35, 7.1],
			"to": [9.875, 0.65, 8.6],
			"rotation": {"angle": -45, "axis": "y", "origin": [8, 0, 8]},
			"faces": {
				"north": {"uv": [8, 2, 8.25, 2], "texture": "#0"},
				"east": {"uv": [8, 2, 8.25, 2], "texture": "#0"},
				"south": {"uv": [8, 2, 8.25, 2], "texture": "#0"},
				"west": {"uv": [8, 2, 8.25, 2], "texture": "#0"},
				"up": {"uv": [8, 2, 8.25, 2], "texture": "#0"},
				"down": {"uv": [8, 2, 8.25, 2], "texture": "#0"}
			}
		},
		{
			"from": [7.6, 0.35, 9.55],
			"to": [8.9, 0.65, 9.75],
			"faces": {
				"north": {"uv": [8, 2, 8.25, 2], "texture": "#0"},
				"east": {"uv": [8, 2, 8.25, 2], "texture": "#0"},
				"south": {"uv": [8, 2, 8.25, 2], "texture": "#0"},
				"west": {"uv": [8, 2, 8.25, 2], "texture": "#0"},
				"up": {"uv": [8, 2, 8.25, 2], "texture": "#0"},
				"down": {"uv": [8, 2, 8.25, 2], "texture": "#0"}
			}
		},
		{
			"from": [6.175, 0.75, 7.125],
			"to": [6.275, 0.85, 8.35],
			"rotation": {"angle": -22.5, "axis": "y", "origin": [8.05, 0.4, 8]},
			"faces": {
				"north": {"uv": [13, 2, 13, 2], "texture": "#0"},
				"east": {"uv": [13, 2, 13, 2], "texture": "#0"},
				"south": {"uv": [13, 2, 13, 2], "texture": "#0"},
				"west": {"uv": [13, 2, 13, 2], "texture": "#0"},
				"up": {"uv": [13, 2, 13, 2], "texture": "#0"},
				"down": {"uv": [13, 2, 13, 2], "texture": "#0"}
			}
		},
		{
			"from": [6.175, 0.75, 7.6],
			"to": [6.275, 0.85, 8.35],
			"faces": {
				"north": {"uv": [13, 2, 13, 2], "texture": "#0"},
				"east": {"uv": [13, 2, 13, 2], "texture": "#0"},
				"south": {"uv": [13, 2, 13, 2], "texture": "#0"},
				"west": {"uv": [13, 2, 13, 2], "texture": "#0"},
				"up": {"uv": [13, 2, 13, 2], "texture": "#0"},
				"down": {"uv": [13, 2, 13, 2], "texture": "#0"}
			}
		},
		{
			"from": [6.2, 0.75, 7.6],
			"to": [6.3, 0.85, 8.9],
			"rotation": {"angle": 22.5, "axis": "y", "origin": [8.05, 0.4, 8]},
			"faces": {
				"north": {"uv": [13, 2, 13, 2], "texture": "#0"},
				"east": {"uv": [13, 2, 13, 2], "texture": "#0"},
				"south": {"uv": [13, 2, 13, 2], "texture": "#0"},
				"west": {"uv": [13, 2, 13, 2], "texture": "#0"},
				"up": {"uv": [13, 2, 13, 2], "texture": "#0"},
				"down": {"uv": [13, 2, 13, 2], "texture": "#0"}
			}
		},
		{
			"from": [6.175, 0.15, 7.125],
			"to": [6.275, 0.25, 8.35],
			"rotation": {"angle": -22.5, "axis": "y", "origin": [8.05, -0.2, 8]},
			"faces": {
				"north": {"uv": [13, 2, 13, 2], "texture": "#0"},
				"east": {"uv": [13, 2, 13, 2], "texture": "#0"},
				"south": {"uv": [13, 2, 13, 2], "texture": "#0"},
				"west": {"uv": [13, 2, 13, 2], "texture": "#0"},
				"up": {"uv": [13, 2, 13, 2], "texture": "#0"},
				"down": {"uv": [13, 2, 13, 2], "texture": "#0"}
			}
		},
		{
			"from": [6.175, 0.15, 7.6],
			"to": [6.275, 0.25, 8.35],
			"faces": {
				"north": {"uv": [13, 2, 13, 2], "texture": "#0"},
				"east": {"uv": [13, 2, 13, 2], "texture": "#0"},
				"south": {"uv": [13, 2, 13, 2], "texture": "#0"},
				"west": {"uv": [13, 2, 13, 2], "texture": "#0"},
				"up": {"uv": [13, 2, 13, 2], "texture": "#0"},
				"down": {"uv": [13, 2, 13, 2], "texture": "#0"}
			}
		},
		{
			"from": [6.2, 0.15, 7.6],
			"to": [6.3, 0.25, 8.9],
			"rotation": {"angle": 22.5, "axis": "y", "origin": [8.05, -0.2, 8]},
			"faces": {
				"north": {"uv": [13, 2, 13, 2], "texture": "#0"},
				"east": {"uv": [13, 2, 13, 2], "texture": "#0"},
				"south": {"uv": [13, 2, 13, 2], "texture": "#0"},
				"west": {"uv": [13, 2, 13, 2], "texture": "#0"},
				"up": {"uv": [13, 2, 13, 2], "texture": "#0"},
				"down": {"uv": [13, 2, 13, 2], "texture": "#0"}
			}
		},
		{
			"from": [7.65, 0.15, 6.5],
			"to": [8.35, 0.85, 8.5],
			"rotation": {"angle": 22.5, "axis": "y", "origin": [8, 0, 8]},
			"faces": {
				"north": {"uv": [8, 6.5, 8, 6], "texture": "#0"},
				"east": {"uv": [8, 6.5, 8, 6], "texture": "#0"},
				"south": {"uv": [8, 6.5, 8, 6], "texture": "#0"},
				"west": {"uv": [8, 6.5, 8, 6], "texture": "#0"},
				"up": {"uv": [8, 6.5, 8, 6], "texture": "#0"},
				"down": {"uv": [8, 6.5, 8, 6], "texture": "#0"}
			}
		},
		{
			"from": [7.6, 0.1, 9.2],
			"to": [8.4, 0.9, 9.3],
			"rotation": {"angle": -22.5, "axis": "y", "origin": [8, 0, 8]},
			"faces": {
				"north": {"uv": [7, 11, 7, 11], "texture": "#0"},
				"east": {"uv": [7, 11, 7, 11], "texture": "#0"},
				"south": {"uv": [7, 11, 7, 11], "texture": "#0"},
				"west": {"uv": [7, 11, 7, 11], "texture": "#0"},
				"up": {"uv": [7, 11, 7, 11], "texture": "#0"},
				"down": {"uv": [7, 11, 7, 11], "texture": "#0"}
			}
		},
		{
			"from": [9.2, 0.1, 7.6],
			"to": [9.3, 0.9, 8.4],
			"faces": {
				"north": {"uv": [7, 11, 7, 11], "texture": "#0"},
				"east": {"uv": [7, 11, 7, 11], "texture": "#0"},
				"south": {"uv": [7, 11, 7, 11], "texture": "#0"},
				"west": {"uv": [7, 11, 7, 11], "texture": "#0"},
				"up": {"uv": [7, 11, 7, 11], "rotation": 270, "texture": "#0"},
				"down": {"uv": [7, 11, 7, 11], "rotation": 90, "texture": "#0"}
			}
		},
		{
			"from": [7.6, 0.1, 6.7],
			"to": [8.4, 0.9, 6.8],
			"rotation": {"angle": 22.5, "axis": "y", "origin": [8, 0, 8]},
			"faces": {
				"north": {"uv": [7, 11, 7, 11], "texture": "#0"},
				"east": {"uv": [7, 11, 7, 11], "texture": "#0"},
				"south": {"uv": [7, 11, 7, 11], "texture": "#0"},
				"west": {"uv": [7, 11, 7, 11], "texture": "#0"},
				"up": {"uv": [7, 11, 7, 11], "rotation": 180, "texture": "#0"},
				"down": {"uv": [7, 11, 7, 11], "rotation": 180, "texture": "#0"}
			}
		},
		{
			"from": [7.6, 1.7, 7.6],
			"to": [8.4, 1.8, 8.4],
			"faces": {
				"north": {"uv": [7, 11, 7, 11], "texture": "#0"},
				"east": {"uv": [7, 11, 7, 11], "texture": "#0"},
				"south": {"uv": [7, 11, 7, 11], "texture": "#0"},
				"west": {"uv": [7, 11, 7, 11], "texture": "#0"},
				"up": {"uv": [7, 11, 7, 11], "texture": "#0"},
				"down": {"uv": [7, 11, 7, 11], "texture": "#0"}
			}
		},
		{
			"from": [7.6, 0.75, 9.65],
			"to": [8.9, 0.85, 9.75],
			"faces": {
				"north": {"uv": [15, 3, 15.25, 3], "texture": "#0"},
				"east": {"uv": [15, 3, 15.25, 3], "texture": "#0"},
				"south": {"uv": [15, 3, 15.25, 3], "texture": "#0"},
				"west": {"uv": [15, 3, 15.25, 3], "texture": "#0"},
				"up": {"uv": [15, 3, 15.25, 3], "texture": "#0"},
				"down": {"uv": [15, 3, 15.25, 3], "texture": "#0"}
			}
		},
		{
			"from": [9.775, 0.75, 7.1],
			"to": [9.875, 0.85, 8.6],
			"rotation": {"angle": -45, "axis": "y", "origin": [8, 0.5, 8]},
			"faces": {
				"north": {"uv": [15, 3, 15.25, 3], "texture": "#0"},
				"east": {"uv": [15, 3, 15.25, 3], "texture": "#0"},
				"south": {"uv": [15, 3, 15.25, 3], "texture": "#0"},
				"west": {"uv": [15, 3, 15.25, 3], "texture": "#0"},
				"up": {"uv": [15, 3, 15.25, 3], "texture": "#0"},
				"down": {"uv": [15, 3, 15.25, 3], "texture": "#0"}
			}
		},
		{
			"from": [7.6, 0.15, 9.65],
			"to": [8.9, 0.25, 9.75],
			"faces": {
				"north": {"uv": [15, 3, 15.25, 3], "texture": "#0"},
				"east": {"uv": [15, 3, 15.25, 3], "texture": "#0"},
				"south": {"uv": [15, 3, 15.25, 3], "texture": "#0"},
				"west": {"uv": [15, 3, 15.25, 3], "texture": "#0"},
				"up": {"uv": [15, 3, 15.25, 3], "texture": "#0"},
				"down": {"uv": [15, 3, 15.25, 3], "texture": "#0"}
			}
		},
		{
			"from": [9.775, 0.15, 7.1],
			"to": [9.875, 0.25, 8.6],
			"rotation": {"angle": -45, "axis": "y", "origin": [8, -0.5, 8]},
			"faces": {
				"north": {"uv": [15, 3, 15.25, 3], "texture": "#0"},
				"east": {"uv": [15, 3, 15.25, 3], "texture": "#0"},
				"south": {"uv": [15, 3, 15.25, 3], "texture": "#0"},
				"west": {"uv": [15, 3, 15.25, 3], "texture": "#0"},
				"up": {"uv": [15, 3, 15.25, 3], "texture": "#0"},
				"down": {"uv": [15, 3, 15.25, 3], "texture": "#0"}
			}
		},
		{
			"from": [9.775, 0.15, 7.4],
			"to": [9.875, 0.25, 8.9],
			"rotation": {"angle": 45, "axis": "y", "origin": [8, 0.5, 8]},
			"faces": {
				"north": {"uv": [13, 2, 13.25, 2], "texture": "#0"},
				"east": {"uv": [13, 2, 13.25, 2], "texture": "#0"},
				"south": {"uv": [13, 2, 13.25, 2], "texture": "#0"},
				"west": {"uv": [13, 2, 13.25, 2], "texture": "#0"},
				"up": {"uv": [13, 2, 13.25, 2], "texture": "#0"},
				"down": {"uv": [13, 2, 13.25, 2], "texture": "#0"}
			}
		},
		{
			"from": [7.6, 0.15, 6.25],
			"to": [8.9, 0.25, 6.35],
			"faces": {
				"north": {"uv": [13, 2, 13.25, 2], "texture": "#0"},
				"east": {"uv": [13, 2, 13.25, 2], "texture": "#0"},
				"south": {"uv": [13, 2, 13.25, 2], "texture": "#0"},
				"west": {"uv": [13, 2, 13.25, 2], "texture": "#0"},
				"up": {"uv": [13, 2, 13.25, 2], "texture": "#0"},
				"down": {"uv": [13, 2, 13.25, 2], "texture": "#0"}
			}
		},
		{
			"from": [9.775, 0.75, 7.4],
			"to": [9.875, 0.85, 8.9],
			"rotation": {"angle": 45, "axis": "y", "origin": [8, 0.5, 8]},
			"faces": {
				"north": {"uv": [13, 2, 13.25, 2], "texture": "#0"},
				"east": {"uv": [13, 2, 13.25, 2], "texture": "#0"},
				"south": {"uv": [13, 2, 13.25, 2], "texture": "#0"},
				"west": {"uv": [13, 2, 13.25, 2], "texture": "#0"},
				"up": {"uv": [13, 2, 13.25, 2], "texture": "#0"},
				"down": {"uv": [13, 2, 13.25, 2], "texture": "#0"}
			}
		},
		{
			"from": [7.6, 0.75, 6.25],
			"to": [8.9, 0.85, 6.35],
			"faces": {
				"north": {"uv": [13, 2, 13.25, 2], "texture": "#0"},
				"east": {"uv": [13, 2, 13.25, 2], "texture": "#0"},
				"south": {"uv": [13, 2, 13.25, 2], "texture": "#0"},
				"west": {"uv": [13, 2, 13.25, 2], "texture": "#0"},
				"up": {"uv": [13, 2, 13.25, 2], "texture": "#0"},
				"down": {"uv": [13, 2, 13.25, 2], "texture": "#0"}
			}
		},
		{
			"from": [6.05, 0.1, 7.6],
			"to": [6.45, 0.9, 8.4],
			"faces": {
				"north": {"uv": [1, 7, 1, 7], "texture": "#0"},
				"east": {"uv": [1, 7, 1, 7], "texture": "#0"},
				"south": {"uv": [1, 7, 1, 7], "texture": "#0"},
				"west": {"uv": [1, 7, 1, 7], "texture": "#0"},
				"up": {"uv": [1, 7, 1, 7], "texture": "#0"},
				"down": {"uv": [1, 7, 1, 7], "texture": "#0"}
			}
		},
		{
			"from": [6.15, 0.7, 7.425],
			"to": [6.275, 0.9, 7.5],
			"rotation": {"angle": -22.5, "axis": "y", "origin": [8.05, 0.4, 8]},
			"faces": {
				"north": {"uv": [13, 2, 13, 2], "texture": "#0"},
				"east": {"uv": [13, 2, 13, 2], "texture": "#0"},
				"south": {"uv": [13, 2, 13, 2], "texture": "#0"},
				"west": {"uv": [13, 2, 13, 2], "texture": "#0"},
				"up": {"uv": [13, 2, 13, 2], "texture": "#0"},
				"down": {"uv": [13, 2, 13, 2], "texture": "#0"}
			}
		},
		{
			"from": [6.15, 0.7, 7.625],
			"to": [6.275, 0.9, 7.7],
			"rotation": {"angle": -22.5, "axis": "y", "origin": [8.05, 0.4, 8]},
			"faces": {
				"north": {"uv": [13, 2, 13, 2], "texture": "#0"},
				"east": {"uv": [13, 2, 13, 2], "texture": "#0"},
				"south": {"uv": [13, 2, 13, 2], "texture": "#0"},
				"west": {"uv": [13, 2, 13, 2], "texture": "#0"},
				"up": {"uv": [13, 2, 13, 2], "texture": "#0"},
				"down": {"uv": [13, 2, 13, 2], "texture": "#0"}
			}
		},
		{
			"from": [6.15, 0.7, 8.025],
			"to": [6.275, 0.9, 8.1],
			"rotation": {"angle": -22.5, "axis": "y", "origin": [8.05, 0.4, 8]},
			"faces": {
				"north": {"uv": [13, 2, 13, 2], "texture": "#0"},
				"east": {"uv": [13, 2, 13, 2], "texture": "#0"},
				"south": {"uv": [13, 2, 13, 2], "texture": "#0"},
				"west": {"uv": [13, 2, 13, 2], "texture": "#0"},
				"up": {"uv": [13, 2, 13, 2], "texture": "#0"},
				"down": {"uv": [13, 2, 13, 2], "texture": "#0"}
			}
		},
		{
			"from": [6.15, 0.7, 7.825],
			"to": [6.275, 0.9, 7.9],
			"rotation": {"angle": -22.5, "axis": "y", "origin": [8.05, 0.4, 8]},
			"faces": {
				"north": {"uv": [13, 2, 13, 2], "texture": "#0"},
				"east": {"uv": [13, 2, 13, 2], "texture": "#0"},
				"south": {"uv": [13, 2, 13, 2], "texture": "#0"},
				"west": {"uv": [13, 2, 13, 2], "texture": "#0"},
				"up": {"uv": [13, 2, 13, 2], "texture": "#0"},
				"down": {"uv": [13, 2, 13, 2], "texture": "#0"}
			}
		},
		{
			"from": [6.15, 0.7, 8.225],
			"to": [6.275, 0.9, 8.3],
			"rotation": {"angle": -22.5, "axis": "y", "origin": [8.05, 0.4, 8]},
			"faces": {
				"north": {"uv": [13, 2, 13, 2], "texture": "#0"},
				"east": {"uv": [13, 2, 13, 2], "texture": "#0"},
				"south": {"uv": [13, 2, 13, 2], "texture": "#0"},
				"west": {"uv": [13, 2, 13, 2], "texture": "#0"},
				"up": {"uv": [13, 2, 13, 2], "texture": "#0"},
				"down": {"uv": [13, 2, 13, 2], "texture": "#0"}
			}
		},
		{
			"from": [6.15, 0.7, 7.225],
			"to": [6.275, 0.9, 7.3],
			"rotation": {"angle": -22.5, "axis": "y", "origin": [8.05, 0.4, 8]},
			"faces": {
				"north": {"uv": [13, 2, 13, 2], "texture": "#0"},
				"east": {"uv": [13, 2, 13, 2], "texture": "#0"},
				"south": {"uv": [13, 2, 13, 2], "texture": "#0"},
				"west": {"uv": [13, 2, 13, 2], "texture": "#0"},
				"up": {"uv": [13, 2, 13, 2], "texture": "#0"},
				"down": {"uv": [13, 2, 13, 2], "texture": "#0"}
			}
		},
		{
			"from": [6.15, 0.1, 7.625],
			"to": [6.275, 0.3, 7.7],
			"rotation": {"angle": -22.5, "axis": "y", "origin": [8.05, 0.4, 8]},
			"faces": {
				"north": {"uv": [13, 2, 13, 2], "texture": "#0"},
				"east": {"uv": [13, 2, 13, 2], "texture": "#0"},
				"south": {"uv": [13, 2, 13, 2], "texture": "#0"},
				"west": {"uv": [13, 2, 13, 2], "texture": "#0"},
				"up": {"uv": [13, 2, 13, 2], "texture": "#0"},
				"down": {"uv": [13, 2, 13, 2], "texture": "#0"}
			}
		},
		{
			"from": [6.15, 0.1, 7.225],
			"to": [6.275, 0.3, 7.3],
			"rotation": {"angle": -22.5, "axis": "y", "origin": [8.05, 0.4, 8]},
			"faces": {
				"north": {"uv": [13, 2, 13, 2], "texture": "#0"},
				"east": {"uv": [13, 2, 13, 2], "texture": "#0"},
				"south": {"uv": [13, 2, 13, 2], "texture": "#0"},
				"west": {"uv": [13, 2, 13, 2], "texture": "#0"},
				"up": {"uv": [13, 2, 13, 2], "texture": "#0"},
				"down": {"uv": [13, 2, 13, 2], "texture": "#0"}
			}
		},
		{
			"from": [6.15, 0.1, 7.425],
			"to": [6.275, 0.3, 7.5],
			"rotation": {"angle": -22.5, "axis": "y", "origin": [8.05, 0.4, 8]},
			"faces": {
				"north": {"uv": [13, 2, 13, 2], "texture": "#0"},
				"east": {"uv": [13, 2, 13, 2], "texture": "#0"},
				"south": {"uv": [13, 2, 13, 2], "texture": "#0"},
				"west": {"uv": [13, 2, 13, 2], "texture": "#0"},
				"up": {"uv": [13, 2, 13, 2], "texture": "#0"},
				"down": {"uv": [13, 2, 13, 2], "texture": "#0"}
			}
		},
		{
			"from": [6.15, 0.1, 7.825],
			"to": [6.275, 0.3, 7.9],
			"rotation": {"angle": -22.5, "axis": "y", "origin": [8.05, 0.4, 8]},
			"faces": {
				"north": {"uv": [13, 2, 13, 2], "texture": "#0"},
				"east": {"uv": [13, 2, 13, 2], "texture": "#0"},
				"south": {"uv": [13, 2, 13, 2], "texture": "#0"},
				"west": {"uv": [13, 2, 13, 2], "texture": "#0"},
				"up": {"uv": [13, 2, 13, 2], "texture": "#0"},
				"down": {"uv": [13, 2, 13, 2], "texture": "#0"}
			}
		},
		{
			"from": [6.15, 0.1, 8.025],
			"to": [6.275, 0.3, 8.1],
			"rotation": {"angle": -22.5, "axis": "y", "origin": [8.05, 0.4, 8]},
			"faces": {
				"north": {"uv": [13, 2, 13, 2], "texture": "#0"},
				"east": {"uv": [13, 2, 13, 2], "texture": "#0"},
				"south": {"uv": [13, 2, 13, 2], "texture": "#0"},
				"west": {"uv": [13, 2, 13, 2], "texture": "#0"},
				"up": {"uv": [13, 2, 13, 2], "texture": "#0"},
				"down": {"uv": [13, 2, 13, 2], "texture": "#0"}
			}
		},
		{
			"from": [6.15, 0.1, 8.225],
			"to": [6.275, 0.3, 8.3],
			"rotation": {"angle": -22.5, "axis": "y", "origin": [8.05, 0.4, 8]},
			"faces": {
				"north": {"uv": [13, 2, 13, 2], "texture": "#0"},
				"east": {"uv": [13, 2, 13, 2], "texture": "#0"},
				"south": {"uv": [13, 2, 13, 2], "texture": "#0"},
				"west": {"uv": [13, 2, 13, 2], "texture": "#0"},
				"up": {"uv": [13, 2, 13, 2], "texture": "#0"},
				"down": {"uv": [13, 2, 13, 2], "texture": "#0"}
			}
		},
		{
			"from": [6.175, 0.7, 7.75],
			"to": [6.3, 0.9, 7.825],
			"rotation": {"angle": 22.5, "axis": "y", "origin": [8.05, 0.4, 8]},
			"faces": {
				"north": {"uv": [13, 2, 13, 2], "texture": "#0"},
				"east": {"uv": [13, 2, 13, 2], "texture": "#0"},
				"south": {"uv": [13, 2, 13, 2], "texture": "#0"},
				"west": {"uv": [13, 2, 13, 2], "texture": "#0"},
				"up": {"uv": [13, 2, 13, 2], "texture": "#0"},
				"down": {"uv": [13, 2, 13, 2], "texture": "#0"}
			}
		},
		{
			"from": [6.175, 0.7, 7.95],
			"to": [6.3, 0.9, 8.025],
			"rotation": {"angle": 22.5, "axis": "y", "origin": [8.05, 0.4, 8]},
			"faces": {
				"north": {"uv": [13, 2, 13, 2], "texture": "#0"},
				"east": {"uv": [13, 2, 13, 2], "texture": "#0"},
				"south": {"uv": [13, 2, 13, 2], "texture": "#0"},
				"west": {"uv": [13, 2, 13, 2], "texture": "#0"},
				"up": {"uv": [13, 2, 13, 2], "texture": "#0"},
				"down": {"uv": [13, 2, 13, 2], "texture": "#0"}
			}
		},
		{
			"from": [6.175, 0.7, 8.15],
			"to": [6.3, 0.9, 8.225],
			"rotation": {"angle": 22.5, "axis": "y", "origin": [8.05, 0.4, 8]},
			"faces": {
				"north": {"uv": [13, 2, 13, 2], "texture": "#0"},
				"east": {"uv": [13, 2, 13, 2], "texture": "#0"},
				"south": {"uv": [13, 2, 13, 2], "texture": "#0"},
				"west": {"uv": [13, 2, 13, 2], "texture": "#0"},
				"up": {"uv": [13, 2, 13, 2], "texture": "#0"},
				"down": {"uv": [13, 2, 13, 2], "texture": "#0"}
			}
		},
		{
			"from": [6.175, 0.7, 8.35],
			"to": [6.3, 0.9, 8.425],
			"rotation": {"angle": 22.5, "axis": "y", "origin": [8.05, 0.4, 8]},
			"faces": {
				"north": {"uv": [13, 2, 13, 2], "texture": "#0"},
				"east": {"uv": [13, 2, 13, 2], "texture": "#0"},
				"south": {"uv": [13, 2, 13, 2], "texture": "#0"},
				"west": {"uv": [13, 2, 13, 2], "texture": "#0"},
				"up": {"uv": [13, 2, 13, 2], "texture": "#0"},
				"down": {"uv": [13, 2, 13, 2], "texture": "#0"}
			}
		},
		{
			"from": [6.175, 0.7, 8.55],
			"to": [6.3, 0.9, 8.625],
			"rotation": {"angle": 22.5, "axis": "y", "origin": [8.05, 0.4, 8]},
			"faces": {
				"north": {"uv": [13, 2, 13, 2], "texture": "#0"},
				"east": {"uv": [13, 2, 13, 2], "texture": "#0"},
				"south": {"uv": [13, 2, 13, 2], "texture": "#0"},
				"west": {"uv": [13, 2, 13, 2], "texture": "#0"},
				"up": {"uv": [13, 2, 13, 2], "texture": "#0"},
				"down": {"uv": [13, 2, 13, 2], "texture": "#0"}
			}
		},
		{
			"from": [6.175, 0.1, 8.55],
			"to": [6.3, 0.3, 8.625],
			"rotation": {"angle": 22.5, "axis": "y", "origin": [8.05, 0.4, 8]},
			"faces": {
				"north": {"uv": [13, 2, 13, 2], "texture": "#0"},
				"east": {"uv": [13, 2, 13, 2], "texture": "#0"},
				"south": {"uv": [13, 2, 13, 2], "texture": "#0"},
				"west": {"uv": [13, 2, 13, 2], "texture": "#0"},
				"up": {"uv": [13, 2, 13, 2], "texture": "#0"},
				"down": {"uv": [13, 2, 13, 2], "texture": "#0"}
			}
		},
		{
			"from": [6.175, 0.1, 7.75],
			"to": [6.3, 0.3, 7.825],
			"rotation": {"angle": 22.5, "axis": "y", "origin": [8.05, 0.4, 8]},
			"faces": {
				"north": {"uv": [13, 2, 13, 2], "texture": "#0"},
				"east": {"uv": [13, 2, 13, 2], "texture": "#0"},
				"south": {"uv": [13, 2, 13, 2], "texture": "#0"},
				"west": {"uv": [13, 2, 13, 2], "texture": "#0"},
				"up": {"uv": [13, 2, 13, 2], "texture": "#0"},
				"down": {"uv": [13, 2, 13, 2], "texture": "#0"}
			}
		},
		{
			"from": [6.175, 0.1, 7.95],
			"to": [6.3, 0.3, 8.025],
			"rotation": {"angle": 22.5, "axis": "y", "origin": [8.05, 0.4, 8]},
			"faces": {
				"north": {"uv": [13, 2, 13, 2], "texture": "#0"},
				"east": {"uv": [13, 2, 13, 2], "texture": "#0"},
				"south": {"uv": [13, 2, 13, 2], "texture": "#0"},
				"west": {"uv": [13, 2, 13, 2], "texture": "#0"},
				"up": {"uv": [13, 2, 13, 2], "texture": "#0"},
				"down": {"uv": [13, 2, 13, 2], "texture": "#0"}
			}
		},
		{
			"from": [6.175, 0.1, 8.15],
			"to": [6.3, 0.3, 8.225],
			"rotation": {"angle": 22.5, "axis": "y", "origin": [8.05, 0.4, 8]},
			"faces": {
				"north": {"uv": [13, 2, 13, 2], "texture": "#0"},
				"east": {"uv": [13, 2, 13, 2], "texture": "#0"},
				"south": {"uv": [13, 2, 13, 2], "texture": "#0"},
				"west": {"uv": [13, 2, 13, 2], "texture": "#0"},
				"up": {"uv": [13, 2, 13, 2], "texture": "#0"},
				"down": {"uv": [13, 2, 13, 2], "texture": "#0"}
			}
		},
		{
			"from": [6.175, 0.1, 8.35],
			"to": [6.3, 0.3, 8.425],
			"rotation": {"angle": 22.5, "axis": "y", "origin": [8.05, 0.4, 8]},
			"faces": {
				"north": {"uv": [13, 2, 13, 2], "texture": "#0"},
				"east": {"uv": [13, 2, 13, 2], "texture": "#0"},
				"south": {"uv": [13, 2, 13, 2], "texture": "#0"},
				"west": {"uv": [13, 2, 13, 2], "texture": "#0"},
				"up": {"uv": [13, 2, 13, 2], "texture": "#0"},
				"down": {"uv": [13, 2, 13, 2], "texture": "#0"}
			}
		},
		{
			"from": [8.1, 0.7, 9.65],
			"to": [8.175, 0.9, 9.775],
			"faces": {
				"north": {"uv": [15, 3, 15.25, 3], "texture": "#0"},
				"east": {"uv": [15, 3, 15.25, 3], "texture": "#0"},
				"south": {"uv": [15, 3, 15.25, 3], "texture": "#0"},
				"west": {"uv": [15, 3, 15.25, 3], "texture": "#0"},
				"up": {"uv": [15, 3, 15.25, 3], "texture": "#0"},
				"down": {"uv": [15, 3, 15.25, 3], "texture": "#0"}
			}
		},
		{
			"from": [8.3, 0.7, 9.65],
			"to": [8.375, 0.9, 9.775],
			"faces": {
				"north": {"uv": [15, 3, 15.25, 3], "texture": "#0"},
				"east": {"uv": [15, 3, 15.25, 3], "texture": "#0"},
				"south": {"uv": [15, 3, 15.25, 3], "texture": "#0"},
				"west": {"uv": [15, 3, 15.25, 3], "texture": "#0"},
				"up": {"uv": [15, 3, 15.25, 3], "texture": "#0"},
				"down": {"uv": [15, 3, 15.25, 3], "texture": "#0"}
			}
		},
		{
			"from": [8.5, 0.7, 9.65],
			"to": [8.575, 0.9, 9.775],
			"faces": {
				"north": {"uv": [15, 3, 15.25, 3], "texture": "#0"},
				"east": {"uv": [15, 3, 15.25, 3], "texture": "#0"},
				"south": {"uv": [15, 3, 15.25, 3], "texture": "#0"},
				"west": {"uv": [15, 3, 15.25, 3], "texture": "#0"},
				"up": {"uv": [15, 3, 15.25, 3], "texture": "#0"},
				"down": {"uv": [15, 3, 15.25, 3], "texture": "#0"}
			}
		},
		{
			"from": [8.7, 0.7, 9.65],
			"to": [8.775, 0.9, 9.775],
			"faces": {
				"north": {"uv": [15, 3, 15.25, 3], "texture": "#0"},
				"east": {"uv": [15, 3, 15.25, 3], "texture": "#0"},
				"south": {"uv": [15, 3, 15.25, 3], "texture": "#0"},
				"west": {"uv": [15, 3, 15.25, 3], "texture": "#0"},
				"up": {"uv": [15, 3, 15.25, 3], "texture": "#0"},
				"down": {"uv": [15, 3, 15.25, 3], "texture": "#0"}
			}
		},
		{
			"from": [8.7, 0.1, 9.65],
			"to": [8.775, 0.3, 9.775],
			"faces": {
				"north": {"uv": [15, 3, 15.25, 3], "texture": "#0"},
				"east": {"uv": [15, 3, 15.25, 3], "texture": "#0"},
				"south": {"uv": [15, 3, 15.25, 3], "texture": "#0"},
				"west": {"uv": [15, 3, 15.25, 3], "texture": "#0"},
				"up": {"uv": [15, 3, 15.25, 3], "texture": "#0"},
				"down": {"uv": [15, 3, 15.25, 3], "texture": "#0"}
			}
		},
		{
			"from": [8.5, 0.1, 9.65],
			"to": [8.575, 0.3, 9.775],
			"faces": {
				"north": {"uv": [15, 3, 15.25, 3], "texture": "#0"},
				"east": {"uv": [15, 3, 15.25, 3], "texture": "#0"},
				"south": {"uv": [15, 3, 15.25, 3], "texture": "#0"},
				"west": {"uv": [15, 3, 15.25, 3], "texture": "#0"},
				"up": {"uv": [15, 3, 15.25, 3], "texture": "#0"},
				"down": {"uv": [15, 3, 15.25, 3], "texture": "#0"}
			}
		},
		{
			"from": [8.3, 0.1, 9.65],
			"to": [8.375, 0.3, 9.775],
			"faces": {
				"north": {"uv": [15, 3, 15.25, 3], "texture": "#0"},
				"east": {"uv": [15, 3, 15.25, 3], "texture": "#0"},
				"south": {"uv": [15, 3, 15.25, 3], "texture": "#0"},
				"west": {"uv": [15, 3, 15.25, 3], "texture": "#0"},
				"up": {"uv": [15, 3, 15.25, 3], "texture": "#0"},
				"down": {"uv": [15, 3, 15.25, 3], "texture": "#0"}
			}
		},
		{
			"from": [8.1, 0.1, 9.65],
			"to": [8.175, 0.3, 9.775],
			"faces": {
				"north": {"uv": [15, 3, 15.25, 3], "texture": "#0"},
				"east": {"uv": [15, 3, 15.25, 3], "texture": "#0"},
				"south": {"uv": [15, 3, 15.25, 3], "texture": "#0"},
				"west": {"uv": [15, 3, 15.25, 3], "texture": "#0"},
				"up": {"uv": [15, 3, 15.25, 3], "texture": "#0"},
				"down": {"uv": [15, 3, 15.25, 3], "texture": "#0"}
			}
		},
		{
			"from": [7.9, 0.7, 9.65],
			"to": [7.975, 0.9, 9.775],
			"faces": {
				"north": {"uv": [15, 3, 15.25, 3], "texture": "#0"},
				"east": {"uv": [15, 3, 15.25, 3], "texture": "#0"},
				"south": {"uv": [15, 3, 15.25, 3], "texture": "#0"},
				"west": {"uv": [15, 3, 15.25, 3], "texture": "#0"},
				"up": {"uv": [15, 3, 15.25, 3], "texture": "#0"},
				"down": {"uv": [15, 3, 15.25, 3], "texture": "#0"}
			}
		},
		{
			"from": [7.9, 0.1, 9.65],
			"to": [7.975, 0.3, 9.775],
			"faces": {
				"north": {"uv": [15, 3, 15.25, 3], "texture": "#0"},
				"east": {"uv": [15, 3, 15.25, 3], "texture": "#0"},
				"south": {"uv": [15, 3, 15.25, 3], "texture": "#0"},
				"west": {"uv": [15, 3, 15.25, 3], "texture": "#0"},
				"up": {"uv": [15, 3, 15.25, 3], "texture": "#0"},
				"down": {"uv": [15, 3, 15.25, 3], "texture": "#0"}
			}
		},
		{
			"from": [7.9, 0.7, 6.225],
			"to": [7.975, 0.9, 6.35],
			"faces": {
				"north": {"uv": [15, 3, 15.25, 3], "texture": "#0"},
				"east": {"uv": [15, 3, 15.25, 3], "texture": "#0"},
				"south": {"uv": [15, 3, 15.25, 3], "texture": "#0"},
				"west": {"uv": [15, 3, 15.25, 3], "texture": "#0"},
				"up": {"uv": [15, 3, 15.25, 3], "texture": "#0"},
				"down": {"uv": [15, 3, 15.25, 3], "texture": "#0"}
			}
		},
		{
			"from": [7.9, 0.1, 6.225],
			"to": [7.975, 0.3, 6.35],
			"faces": {
				"north": {"uv": [15, 3, 15.25, 3], "texture": "#0"},
				"east": {"uv": [15, 3, 15.25, 3], "texture": "#0"},
				"south": {"uv": [15, 3, 15.25, 3], "texture": "#0"},
				"west": {"uv": [15, 3, 15.25, 3], "texture": "#0"},
				"up": {"uv": [15, 3, 15.25, 3], "texture": "#0"},
				"down": {"uv": [15, 3, 15.25, 3], "texture": "#0"}
			}
		},
		{
			"from": [8.1, 0.7, 6.225],
			"to": [8.175, 0.9, 6.35],
			"faces": {
				"north": {"uv": [15, 3, 15.25, 3], "texture": "#0"},
				"east": {"uv": [15, 3, 15.25, 3], "texture": "#0"},
				"south": {"uv": [15, 3, 15.25, 3], "texture": "#0"},
				"west": {"uv": [15, 3, 15.25, 3], "texture": "#0"},
				"up": {"uv": [15, 3, 15.25, 3], "texture": "#0"},
				"down": {"uv": [15, 3, 15.25, 3], "texture": "#0"}
			}
		},
		{
			"from": [8.3, 0.7, 6.225],
			"to": [8.375, 0.9, 6.35],
			"faces": {
				"north": {"uv": [15, 3, 15.25, 3], "texture": "#0"},
				"east": {"uv": [15, 3, 15.25, 3], "texture": "#0"},
				"south": {"uv": [15, 3, 15.25, 3], "texture": "#0"},
				"west": {"uv": [15, 3, 15.25, 3], "texture": "#0"},
				"up": {"uv": [15, 3, 15.25, 3], "texture": "#0"},
				"down": {"uv": [15, 3, 15.25, 3], "texture": "#0"}
			}
		},
		{
			"from": [8.5, 0.7, 6.225],
			"to": [8.575, 0.9, 6.35],
			"faces": {
				"north": {"uv": [15, 3, 15.25, 3], "texture": "#0"},
				"east": {"uv": [15, 3, 15.25, 3], "texture": "#0"},
				"south": {"uv": [15, 3, 15.25, 3], "texture": "#0"},
				"west": {"uv": [15, 3, 15.25, 3], "texture": "#0"},
				"up": {"uv": [15, 3, 15.25, 3], "texture": "#0"},
				"down": {"uv": [15, 3, 15.25, 3], "texture": "#0"}
			}
		},
		{
			"from": [8.7, 0.7, 6.225],
			"to": [8.775, 0.9, 6.35],
			"faces": {
				"north": {"uv": [15, 3, 15.25, 3], "texture": "#0"},
				"east": {"uv": [15, 3, 15.25, 3], "texture": "#0"},
				"south": {"uv": [15, 3, 15.25, 3], "texture": "#0"},
				"west": {"uv": [15, 3, 15.25, 3], "texture": "#0"},
				"up": {"uv": [15, 3, 15.25, 3], "texture": "#0"},
				"down": {"uv": [15, 3, 15.25, 3], "texture": "#0"}
			}
		},
		{
			"from": [8.1, 0.1, 6.225],
			"to": [8.175, 0.3, 6.35],
			"faces": {
				"north": {"uv": [15, 3, 15.25, 3], "texture": "#0"},
				"east": {"uv": [15, 3, 15.25, 3], "texture": "#0"},
				"south": {"uv": [15, 3, 15.25, 3], "texture": "#0"},
				"west": {"uv": [15, 3, 15.25, 3], "texture": "#0"},
				"up": {"uv": [15, 3, 15.25, 3], "texture": "#0"},
				"down": {"uv": [15, 3, 15.25, 3], "texture": "#0"}
			}
		},
		{
			"from": [8.3, 0.1, 6.225],
			"to": [8.375, 0.3, 6.35],
			"faces": {
				"north": {"uv": [15, 3, 15.25, 3], "texture": "#0"},
				"east": {"uv": [15, 3, 15.25, 3], "texture": "#0"},
				"south": {"uv": [15, 3, 15.25, 3], "texture": "#0"},
				"west": {"uv": [15, 3, 15.25, 3], "texture": "#0"},
				"up": {"uv": [15, 3, 15.25, 3], "texture": "#0"},
				"down": {"uv": [15, 3, 15.25, 3], "texture": "#0"}
			}
		},
		{
			"from": [8.5, 0.1, 6.225],
			"to": [8.575, 0.3, 6.35],
			"faces": {
				"north": {"uv": [15, 3, 15.25, 3], "texture": "#0"},
				"east": {"uv": [15, 3, 15.25, 3], "texture": "#0"},
				"south": {"uv": [15, 3, 15.25, 3], "texture": "#0"},
				"west": {"uv": [15, 3, 15.25, 3], "texture": "#0"},
				"up": {"uv": [15, 3, 15.25, 3], "texture": "#0"},
				"down": {"uv": [15, 3, 15.25, 3], "texture": "#0"}
			}
		},
		{
			"from": [8.7, 0.1, 6.225],
			"to": [8.775, 0.3, 6.35],
			"faces": {
				"north": {"uv": [15, 3, 15.25, 3], "texture": "#0"},
				"east": {"uv": [15, 3, 15.25, 3], "texture": "#0"},
				"south": {"uv": [15, 3, 15.25, 3], "texture": "#0"},
				"west": {"uv": [15, 3, 15.25, 3], "texture": "#0"},
				"up": {"uv": [15, 3, 15.25, 3], "texture": "#0"},
				"down": {"uv": [15, 3, 15.25, 3], "texture": "#0"}
			}
		},
		{
			"from": [9.775, 0.7, 8.45],
			"to": [9.9, 0.9, 8.525],
			"rotation": {"angle": -45, "axis": "y", "origin": [8, 0.5, 8]},
			"faces": {
				"north": {"uv": [15, 3, 15.25, 3], "texture": "#0"},
				"east": {"uv": [15, 3, 15.25, 3], "texture": "#0"},
				"south": {"uv": [15, 3, 15.25, 3], "texture": "#0"},
				"west": {"uv": [15, 3, 15.25, 3], "texture": "#0"},
				"up": {"uv": [15, 3, 15.25, 3], "texture": "#0"},
				"down": {"uv": [15, 3, 15.25, 3], "texture": "#0"}
			}
		},
		{
			"from": [9.775, 0.1, 8.45],
			"to": [9.9, 0.3, 8.525],
			"rotation": {"angle": -45, "axis": "y", "origin": [8, 0.5, 8]},
			"faces": {
				"north": {"uv": [15, 3, 15.25, 3], "texture": "#0"},
				"east": {"uv": [15, 3, 15.25, 3], "texture": "#0"},
				"south": {"uv": [15, 3, 15.25, 3], "texture": "#0"},
				"west": {"uv": [15, 3, 15.25, 3], "texture": "#0"},
				"up": {"uv": [15, 3, 15.25, 3], "texture": "#0"},
				"down": {"uv": [15, 3, 15.25, 3], "texture": "#0"}
			}
		},
		{
			"from": [9.775, 0.1, 8.25],
			"to": [9.9, 0.3, 8.325],
			"rotation": {"angle": -45, "axis": "y", "origin": [8, 0.5, 8]},
			"faces": {
				"north": {"uv": [15, 3, 15.25, 3], "texture": "#0"},
				"east": {"uv": [15, 3, 15.25, 3], "texture": "#0"},
				"south": {"uv": [15, 3, 15.25, 3], "texture": "#0"},
				"west": {"uv": [15, 3, 15.25, 3], "texture": "#0"},
				"up": {"uv": [15, 3, 15.25, 3], "texture": "#0"},
				"down": {"uv": [15, 3, 15.25, 3], "texture": "#0"}
			}
		},
		{
			"from": [9.775, 0.7, 8.25],
			"to": [9.9, 0.9, 8.325],
			"rotation": {"angle": -45, "axis": "y", "origin": [8, 0.5, 8]},
			"faces": {
				"north": {"uv": [15, 3, 15.25, 3], "texture": "#0"},
				"east": {"uv": [15, 3, 15.25, 3], "texture": "#0"},
				"south": {"uv": [15, 3, 15.25, 3], "texture": "#0"},
				"west": {"uv": [15, 3, 15.25, 3], "texture": "#0"},
				"up": {"uv": [15, 3, 15.25, 3], "texture": "#0"},
				"down": {"uv": [15, 3, 15.25, 3], "texture": "#0"}
			}
		},
		{
			"from": [9.775, 0.1, 8.05],
			"to": [9.9, 0.3, 8.125],
			"rotation": {"angle": -45, "axis": "y", "origin": [8, 0.5, 8]},
			"faces": {
				"north": {"uv": [15, 3, 15.25, 3], "texture": "#0"},
				"east": {"uv": [15, 3, 15.25, 3], "texture": "#0"},
				"south": {"uv": [15, 3, 15.25, 3], "texture": "#0"},
				"west": {"uv": [15, 3, 15.25, 3], "texture": "#0"},
				"up": {"uv": [15, 3, 15.25, 3], "texture": "#0"},
				"down": {"uv": [15, 3, 15.25, 3], "texture": "#0"}
			}
		},
		{
			"from": [9.775, 0.7, 8.05],
			"to": [9.9, 0.9, 8.125],
			"rotation": {"angle": -45, "axis": "y", "origin": [8, 0.5, 8]},
			"faces": {
				"north": {"uv": [15, 3, 15.25, 3], "texture": "#0"},
				"east": {"uv": [15, 3, 15.25, 3], "texture": "#0"},
				"south": {"uv": [15, 3, 15.25, 3], "texture": "#0"},
				"west": {"uv": [15, 3, 15.25, 3], "texture": "#0"},
				"up": {"uv": [15, 3, 15.25, 3], "texture": "#0"},
				"down": {"uv": [15, 3, 15.25, 3], "texture": "#0"}
			}
		},
		{
			"from": [9.775, 0.1, 7.85],
			"to": [9.9, 0.3, 7.925],
			"rotation": {"angle": -45, "axis": "y", "origin": [8, 0.5, 8]},
			"faces": {
				"north": {"uv": [15, 3, 15.25, 3], "texture": "#0"},
				"east": {"uv": [15, 3, 15.25, 3], "texture": "#0"},
				"south": {"uv": [15, 3, 15.25, 3], "texture": "#0"},
				"west": {"uv": [15, 3, 15.25, 3], "texture": "#0"},
				"up": {"uv": [15, 3, 15.25, 3], "texture": "#0"},
				"down": {"uv": [15, 3, 15.25, 3], "texture": "#0"}
			}
		},
		{
			"from": [9.775, 0.7, 7.85],
			"to": [9.9, 0.9, 7.925],
			"rotation": {"angle": -45, "axis": "y", "origin": [8, 0.5, 8]},
			"faces": {
				"north": {"uv": [15, 3, 15.25, 3], "texture": "#0"},
				"east": {"uv": [15, 3, 15.25, 3], "texture": "#0"},
				"south": {"uv": [15, 3, 15.25, 3], "texture": "#0"},
				"west": {"uv": [15, 3, 15.25, 3], "texture": "#0"},
				"up": {"uv": [15, 3, 15.25, 3], "texture": "#0"},
				"down": {"uv": [15, 3, 15.25, 3], "texture": "#0"}
			}
		},
		{
			"from": [9.775, 0.1, 7.65],
			"to": [9.9, 0.3, 7.725],
			"rotation": {"angle": -45, "axis": "y", "origin": [8, 0.5, 8]},
			"faces": {
				"north": {"uv": [15, 3, 15.25, 3], "texture": "#0"},
				"east": {"uv": [15, 3, 15.25, 3], "texture": "#0"},
				"south": {"uv": [15, 3, 15.25, 3], "texture": "#0"},
				"west": {"uv": [15, 3, 15.25, 3], "texture": "#0"},
				"up": {"uv": [15, 3, 15.25, 3], "texture": "#0"},
				"down": {"uv": [15, 3, 15.25, 3], "texture": "#0"}
			}
		},
		{
			"from": [9.775, 0.7, 7.65],
			"to": [9.9, 0.9, 7.725],
			"rotation": {"angle": -45, "axis": "y", "origin": [8, 0.5, 8]},
			"faces": {
				"north": {"uv": [15, 3, 15.25, 3], "texture": "#0"},
				"east": {"uv": [15, 3, 15.25, 3], "texture": "#0"},
				"south": {"uv": [15, 3, 15.25, 3], "texture": "#0"},
				"west": {"uv": [15, 3, 15.25, 3], "texture": "#0"},
				"up": {"uv": [15, 3, 15.25, 3], "texture": "#0"},
				"down": {"uv": [15, 3, 15.25, 3], "texture": "#0"}
			}
		},
		{
			"from": [9.775, 0.1, 7.45],
			"to": [9.9, 0.3, 7.525],
			"rotation": {"angle": -45, "axis": "y", "origin": [8, 0.5, 8]},
			"faces": {
				"north": {"uv": [15, 3, 15.25, 3], "texture": "#0"},
				"east": {"uv": [15, 3, 15.25, 3], "texture": "#0"},
				"south": {"uv": [15, 3, 15.25, 3], "texture": "#0"},
				"west": {"uv": [15, 3, 15.25, 3], "texture": "#0"},
				"up": {"uv": [15, 3, 15.25, 3], "texture": "#0"},
				"down": {"uv": [15, 3, 15.25, 3], "texture": "#0"}
			}
		},
		{
			"from": [9.775, 0.7, 7.45],
			"to": [9.9, 0.9, 7.525],
			"rotation": {"angle": -45, "axis": "y", "origin": [8, 0.5, 8]},
			"faces": {
				"north": {"uv": [15, 3, 15.25, 3], "texture": "#0"},
				"east": {"uv": [15, 3, 15.25, 3], "texture": "#0"},
				"south": {"uv": [15, 3, 15.25, 3], "texture": "#0"},
				"west": {"uv": [15, 3, 15.25, 3], "texture": "#0"},
				"up": {"uv": [15, 3, 15.25, 3], "texture": "#0"},
				"down": {"uv": [15, 3, 15.25, 3], "texture": "#0"}
			}
		},
		{
			"from": [9.775, 0.1, 7.25],
			"to": [9.9, 0.3, 7.325],
			"rotation": {"angle": -45, "axis": "y", "origin": [8, 0.5, 8]},
			"faces": {
				"north": {"uv": [15, 3, 15.25, 3], "texture": "#0"},
				"east": {"uv": [15, 3, 15.25, 3], "texture": "#0"},
				"south": {"uv": [15, 3, 15.25, 3], "texture": "#0"},
				"west": {"uv": [15, 3, 15.25, 3], "texture": "#0"},
				"up": {"uv": [15, 3, 15.25, 3], "texture": "#0"},
				"down": {"uv": [15, 3, 15.25, 3], "texture": "#0"}
			}
		},
		{
			"from": [9.775, 0.7, 7.25],
			"to": [9.9, 0.9, 7.325],
			"rotation": {"angle": -45, "axis": "y", "origin": [8, 0.5, 8]},
			"faces": {
				"north": {"uv": [15, 3, 15.25, 3], "texture": "#0"},
				"east": {"uv": [15, 3, 15.25, 3], "texture": "#0"},
				"south": {"uv": [15, 3, 15.25, 3], "texture": "#0"},
				"west": {"uv": [15, 3, 15.25, 3], "texture": "#0"},
				"up": {"uv": [15, 3, 15.25, 3], "texture": "#0"},
				"down": {"uv": [15, 3, 15.25, 3], "texture": "#0"}
			}
		},
		{
			"from": [9.775, 0.7, 8.65],
			"to": [9.9, 0.9, 8.725],
			"rotation": {"angle": 45, "axis": "y", "origin": [8, 0.5, 8]},
			"faces": {
				"north": {"uv": [13, 2, 13.25, 2], "texture": "#0"},
				"east": {"uv": [13, 2, 13.25, 2], "texture": "#0"},
				"south": {"uv": [13, 2, 13.25, 2], "texture": "#0"},
				"west": {"uv": [13, 2, 13.25, 2], "texture": "#0"},
				"up": {"uv": [13, 2, 13.25, 2], "texture": "#0"},
				"down": {"uv": [13, 2, 13.25, 2], "texture": "#0"}
			}
		},
		{
			"from": [9.775, 0.7, 8.25],
			"to": [9.9, 0.9, 8.325],
			"rotation": {"angle": 45, "axis": "y", "origin": [8, 0.5, 8]},
			"faces": {
				"north": {"uv": [13, 2, 13.25, 2], "texture": "#0"},
				"east": {"uv": [13, 2, 13.25, 2], "texture": "#0"},
				"south": {"uv": [13, 2, 13.25, 2], "texture": "#0"},
				"west": {"uv": [13, 2, 13.25, 2], "texture": "#0"},
				"up": {"uv": [13, 2, 13.25, 2], "texture": "#0"},
				"down": {"uv": [13, 2, 13.25, 2], "texture": "#0"}
			}
		},
		{
			"from": [9.775, 0.7, 8.45],
			"to": [9.9, 0.9, 8.525],
			"rotation": {"angle": 45, "axis": "y", "origin": [8, 0.5, 8]},
			"faces": {
				"north": {"uv": [13, 2, 13.25, 2], "texture": "#0"},
				"east": {"uv": [13, 2, 13.25, 2], "texture": "#0"},
				"south": {"uv": [13, 2, 13.25, 2], "texture": "#0"},
				"west": {"uv": [13, 2, 13.25, 2], "texture": "#0"},
				"up": {"uv": [13, 2, 13.25, 2], "texture": "#0"},
				"down": {"uv": [13, 2, 13.25, 2], "texture": "#0"}
			}
		},
		{
			"from": [9.775, 0.7, 8.05],
			"to": [9.9, 0.9, 8.125],
			"rotation": {"angle": 45, "axis": "y", "origin": [8, 0.5, 8]},
			"faces": {
				"north": {"uv": [13, 2, 13.25, 2], "texture": "#0"},
				"east": {"uv": [13, 2, 13.25, 2], "texture": "#0"},
				"south": {"uv": [13, 2, 13.25, 2], "texture": "#0"},
				"west": {"uv": [13, 2, 13.25, 2], "texture": "#0"},
				"up": {"uv": [13, 2, 13.25, 2], "texture": "#0"},
				"down": {"uv": [13, 2, 13.25, 2], "texture": "#0"}
			}
		},
		{
			"from": [9.775, 0.7, 7.85],
			"to": [9.9, 0.9, 7.925],
			"rotation": {"angle": 45, "axis": "y", "origin": [8, 0.5, 8]},
			"faces": {
				"north": {"uv": [13, 2, 13.25, 2], "texture": "#0"},
				"east": {"uv": [13, 2, 13.25, 2], "texture": "#0"},
				"south": {"uv": [13, 2, 13.25, 2], "texture": "#0"},
				"west": {"uv": [13, 2, 13.25, 2], "texture": "#0"},
				"up": {"uv": [13, 2, 13.25, 2], "texture": "#0"},
				"down": {"uv": [13, 2, 13.25, 2], "texture": "#0"}
			}
		},
		{
			"from": [9.775, 0.7, 7.65],
			"to": [9.9, 0.9, 7.725],
			"rotation": {"angle": 45, "axis": "y", "origin": [8, 0.5, 8]},
			"faces": {
				"north": {"uv": [13, 2, 13.25, 2], "texture": "#0"},
				"east": {"uv": [13, 2, 13.25, 2], "texture": "#0"},
				"south": {"uv": [13, 2, 13.25, 2], "texture": "#0"},
				"west": {"uv": [13, 2, 13.25, 2], "texture": "#0"},
				"up": {"uv": [13, 2, 13.25, 2], "texture": "#0"},
				"down": {"uv": [13, 2, 13.25, 2], "texture": "#0"}
			}
		},
		{
			"from": [9.775, 0.7, 7.45],
			"to": [9.9, 0.9, 7.525],
			"rotation": {"angle": 45, "axis": "y", "origin": [8, 0.5, 8]},
			"faces": {
				"north": {"uv": [13, 2, 13.25, 2], "texture": "#0"},
				"east": {"uv": [13, 2, 13.25, 2], "texture": "#0"},
				"south": {"uv": [13, 2, 13.25, 2], "texture": "#0"},
				"west": {"uv": [13, 2, 13.25, 2], "texture": "#0"},
				"up": {"uv": [13, 2, 13.25, 2], "texture": "#0"},
				"down": {"uv": [13, 2, 13.25, 2], "texture": "#0"}
			}
		},
		{
			"from": [9.775, 0.7, 7.45],
			"to": [9.9, 0.9, 7.525],
			"rotation": {"angle": 45, "axis": "y", "origin": [8, 0.5, 8]},
			"faces": {
				"north": {"uv": [13, 2, 13.25, 2], "texture": "#0"},
				"east": {"uv": [13, 2, 13.25, 2], "texture": "#0"},
				"south": {"uv": [13, 2, 13.25, 2], "texture": "#0"},
				"west": {"uv": [13, 2, 13.25, 2], "texture": "#0"},
				"up": {"uv": [13, 2, 13.25, 2], "texture": "#0"},
				"down": {"uv": [13, 2, 13.25, 2], "texture": "#0"}
			}
		},
		{
			"from": [9.775, 0.1, 7.45],
			"to": [9.9, 0.3, 7.525],
			"rotation": {"angle": 45, "axis": "y", "origin": [8, 0.5, 8]},
			"faces": {
				"north": {"uv": [13, 2, 13.25, 2], "texture": "#0"},
				"east": {"uv": [13, 2, 13.25, 2], "texture": "#0"},
				"south": {"uv": [13, 2, 13.25, 2], "texture": "#0"},
				"west": {"uv": [13, 2, 13.25, 2], "texture": "#0"},
				"up": {"uv": [13, 2, 13.25, 2], "texture": "#0"},
				"down": {"uv": [13, 2, 13.25, 2], "texture": "#0"}
			}
		},
		{
			"from": [9.775, 0.1, 7.65],
			"to": [9.9, 0.3, 7.725],
			"rotation": {"angle": 45, "axis": "y", "origin": [8, 0.5, 8]},
			"faces": {
				"north": {"uv": [13, 2, 13.25, 2], "texture": "#0"},
				"east": {"uv": [13, 2, 13.25, 2], "texture": "#0"},
				"south": {"uv": [13, 2, 13.25, 2], "texture": "#0"},
				"west": {"uv": [13, 2, 13.25, 2], "texture": "#0"},
				"up": {"uv": [13, 2, 13.25, 2], "texture": "#0"},
				"down": {"uv": [13, 2, 13.25, 2], "texture": "#0"}
			}
		},
		{
			"from": [9.775, 0.1, 7.85],
			"to": [9.9, 0.3, 7.925],
			"rotation": {"angle": 45, "axis": "y", "origin": [8, 0.5, 8]},
			"faces": {
				"north": {"uv": [13, 2, 13.25, 2], "texture": "#0"},
				"east": {"uv": [13, 2, 13.25, 2], "texture": "#0"},
				"south": {"uv": [13, 2, 13.25, 2], "texture": "#0"},
				"west": {"uv": [13, 2, 13.25, 2], "texture": "#0"},
				"up": {"uv": [13, 2, 13.25, 2], "texture": "#0"},
				"down": {"uv": [13, 2, 13.25, 2], "texture": "#0"}
			}
		},
		{
			"from": [9.775, 0.1, 8.05],
			"to": [9.9, 0.3, 8.125],
			"rotation": {"angle": 45, "axis": "y", "origin": [8, 0.5, 8]},
			"faces": {
				"north": {"uv": [13, 2, 13.25, 2], "texture": "#0"},
				"east": {"uv": [13, 2, 13.25, 2], "texture": "#0"},
				"south": {"uv": [13, 2, 13.25, 2], "texture": "#0"},
				"west": {"uv": [13, 2, 13.25, 2], "texture": "#0"},
				"up": {"uv": [13, 2, 13.25, 2], "texture": "#0"},
				"down": {"uv": [13, 2, 13.25, 2], "texture": "#0"}
			}
		},
		{
			"from": [9.775, 0.1, 8.25],
			"to": [9.9, 0.3, 8.325],
			"rotation": {"angle": 45, "axis": "y", "origin": [8, 0.5, 8]},
			"faces": {
				"north": {"uv": [13, 2, 13.25, 2], "texture": "#0"},
				"east": {"uv": [13, 2, 13.25, 2], "texture": "#0"},
				"south": {"uv": [13, 2, 13.25, 2], "texture": "#0"},
				"west": {"uv": [13, 2, 13.25, 2], "texture": "#0"},
				"up": {"uv": [13, 2, 13.25, 2], "texture": "#0"},
				"down": {"uv": [13, 2, 13.25, 2], "texture": "#0"}
			}
		},
		{
			"from": [9.775, 0.1, 8.45],
			"to": [9.9, 0.3, 8.525],
			"rotation": {"angle": 45, "axis": "y", "origin": [8, 0.5, 8]},
			"faces": {
				"north": {"uv": [13, 2, 13.25, 2], "texture": "#0"},
				"east": {"uv": [13, 2, 13.25, 2], "texture": "#0"},
				"south": {"uv": [13, 2, 13.25, 2], "texture": "#0"},
				"west": {"uv": [13, 2, 13.25, 2], "texture": "#0"},
				"up": {"uv": [13, 2, 13.25, 2], "texture": "#0"},
				"down": {"uv": [13, 2, 13.25, 2], "texture": "#0"}
			}
		},
		{
			"from": [9.775, 0.1, 8.65],
			"to": [9.9, 0.3, 8.725],
			"rotation": {"angle": 45, "axis": "y", "origin": [8, 0.5, 8]},
			"faces": {
				"north": {"uv": [13, 2, 13.25, 2], "texture": "#0"},
				"east": {"uv": [13, 2, 13.25, 2], "texture": "#0"},
				"south": {"uv": [13, 2, 13.25, 2], "texture": "#0"},
				"west": {"uv": [13, 2, 13.25, 2], "texture": "#0"},
				"up": {"uv": [13, 2, 13.25, 2], "texture": "#0"},
				"down": {"uv": [13, 2, 13.25, 2], "texture": "#0"}
			}
		}
	],
	"display": {
		"thirdperson_righthand": {
			"translation": [0, 5.5, 0.5],
			"scale": [0.75, 0.75, 0.75]
		},
		"thirdperson_lefthand": {
			"translation": [0, 5.5, 0.5],
			"scale": [0.75, 0.75, 0.75]
		},
		"firstperson_righthand": {
			"rotation": [0, 40, 0],
			"translation": [0, 11.75, 1.25],
			"scale": [1.25, 1.25, 1.25]
		},
		"firstperson_lefthand": {
			"rotation": [0, 40, 0],
			"translation": [0, 11.75, 1.25],
			"scale": [1.25, 1.25, 1.25]
		},
		"ground": {
			"translation": [0, 9, 0],
			"scale": [1.45, 1.45, 1.45]
		},
		"gui": {
			"rotation": [35, 52, 0],
			"translation": [0, 14.75, 0],
			"scale": [2.5, 2.5, 2.5]
		},
		"head": {
			"translation": [0, 2.25, -6.5]
		},
		"fixed": {
			"rotation": [0, 30, 0],
			"translation": [0, 18, -1],
			"scale": [2.5, 2.5, 2.5]
		}
	}
}