{
	"lines":[
	"Vertical Land Type"
	,"(Vertical Scan Mode)"
	,""
	," In the event that something obstructs your time-ship's desired landing spot, it will try to find another nearby. This controls whether it prefers a higher or lower point."
	]
}