{
	"lines":[
	"Stabilizer"
	,""
	," By default, the Tardis can only fly in Unstabilised Flight."
	," This circuit allows the Tardis to be able to fly in Stabilised Flight. You can toggle between the two flight modes by using the Stabilizer Control"
	]
}