{
	"lines":[
	"Timeship Mood (Cont.)"
	,""
	,"Finally, you may also find that using the Telepathic Circuits can help you feel"
	,"more connection to your Timeship. This can also allow you to be perceptive of its mood when you sleep in a bed in the interior."
	]
}