{
  "parent": "tardis:obtain_tardis",
  "display": {
    "icon": {
      "item": "tardis:plasmic_shell"
    },
    "title": {
      "translate": "advancements.tardis.exterior.root"
    },
    "description": {
      "translate": "advancements.tardis.exterior.root.desc"
    },
    "frame": "task",
    "show_toast": false,
    "announce_to_chat": false,
    "hidden": false
  },
  "criteria": {
    "exterior_unlock": {
      "trigger": "exterior_unlock"
    }
  },
  "requirements": [
    [
      "exterior_unlock"
    ]
  ]
}