{
	"lines":[
		"(Crashed ships, cont.)"
		,""
		," If you have an Interstitial Antenna, you maybe be able to pick up an S.O.S on these, even though in most situations anyone requiring assistance will be long gone."
	]
}