{
	"lines":[
		"Flight Modes (cont.)",
		"",
		" Unstabilised Flight is the default flight mode.",
		"It allows a time-ship to fly twice as fast for half the fuel usage compared to Stabilised Flight."
	]
}